%YAML 1.1
%TAG !u! tag:unity3d.com,2011:
--- !u!29 &1
OcclusionCullingSettings:
  m_ObjectHideFlags: 0
  serializedVersion: 2
  m_OcclusionBakeSettings:
    smallestOccluder: 5
    smallestHole: 0.25
    backfaceThreshold: 100
  m_SceneGUID: 00000000000000000000000000000000
  m_OcclusionCullingData: {fileID: 0}
--- !u!104 &2
RenderSettings:
  m_ObjectHideFlags: 0
  serializedVersion: 9
  m_Fog: 0
  m_FogColor: {r: 0.5, g: 0.5, b: 0.5, a: 1}
  m_FogMode: 3
  m_FogDensity: 0.01
  m_LinearFogStart: 0
  m_LinearFogEnd: 300
  m_AmbientSkyColor: {r: 0.212, g: 0.227, b: 0.259, a: 1}
  m_AmbientEquatorColor: {r: 0.114, g: 0.125, b: 0.133, a: 1}
  m_AmbientGroundColor: {r: 0.047, g: 0.043, b: 0.035, a: 1}
  m_AmbientIntensity: 1
  m_AmbientMode: 0
  m_SubtractiveShadowColor: {r: 0.42, g: 0.478, b: 0.627, a: 1}
  m_SkyboxMaterial: {fileID: 10304, guid: 0000000000000000f000000000000000, type: 0}
  m_HaloStrength: 0.5
  m_FlareStrength: 1
  m_FlareFadeSpeed: 3
  m_HaloTexture: {fileID: 0}
  m_SpotCookie: {fileID: 10001, guid: 0000000000000000e000000000000000, type: 0}
  m_DefaultReflectionMode: 0
  m_DefaultReflectionResolution: 128
  m_ReflectionBounces: 1
  m_ReflectionIntensity: 1
  m_CustomReflection: {fileID: 0}
  m_Sun: {fileID: 0}
  m_IndirectSpecularColor: {r: 0, g: 0, b: 0, a: 1}
  m_UseRadianceAmbientProbe: 0
--- !u!157 &3
LightmapSettings:
  m_ObjectHideFlags: 0
  serializedVersion: 12
  m_GIWorkflowMode: 0
  m_GISettings:
    serializedVersion: 2
    m_BounceScale: 1
    m_IndirectOutputScale: 1
    m_AlbedoBoost: 1
    m_EnvironmentLightingMode: 0
    m_EnableBakedLightmaps: 1
    m_EnableRealtimeLightmaps: 1
  m_LightmapEditorSettings:
    serializedVersion: 12
    m_Resolution: 2
    m_BakeResolution: 40
    m_AtlasSize: 1024
    m_AO: 0
    m_AOMaxDistance: 1
    m_CompAOExponent: 1
    m_CompAOExponentDirect: 0
    m_ExtractAmbientOcclusion: 0
    m_Padding: 2
    m_LightmapParameters: {fileID: 0}
    m_LightmapsBakeMode: 1
    m_TextureCompression: 1
    m_FinalGather: 0
    m_FinalGatherFiltering: 1
    m_FinalGatherRayCount: 256
    m_ReflectionCompression: 2
    m_MixedBakeMode: 1
    m_BakeBackend: 0
    m_PVRSampling: 1
    m_PVRDirectSampleCount: 32
    m_PVRSampleCount: 512
    m_PVRBounces: 2
    m_PVREnvironmentSampleCount: 512
    m_PVREnvironmentReferencePointCount: 2048
    m_PVRFilteringMode: 0
    m_PVRDenoiserTypeDirect: 0
    m_PVRDenoiserTypeIndirect: 0
    m_PVRDenoiserTypeAO: 0
    m_PVRFilterTypeDirect: 0
    m_PVRFilterTypeIndirect: 0
    m_PVRFilterTypeAO: 0
    m_PVREnvironmentMIS: 0
    m_PVRCulling: 1
    m_PVRFilteringGaussRadiusDirect: 1
    m_PVRFilteringGaussRadiusIndirect: 5
    m_PVRFilteringGaussRadiusAO: 2
    m_PVRFilteringAtrousPositionSigmaDirect: 0.5
    m_PVRFilteringAtrousPositionSigmaIndirect: 2
    m_PVRFilteringAtrousPositionSigmaAO: 1
    m_ExportTrainingData: 0
    m_TrainingDataDestination: TrainingData
    m_LightProbeSampleCountMultiplier: 4
  m_LightingDataAsset: {fileID: 0}
  m_LightingSettings: {fileID: 4890085278179872738, guid: f565d69054d59be4a84f325aca7e781b, type: 2}
--- !u!196 &4
NavMeshSettings:
  serializedVersion: 2
  m_ObjectHideFlags: 0
  m_BuildSettings:
    serializedVersion: 2
    agentTypeID: 0
    agentRadius: 0.5
    agentHeight: 2
    agentSlope: 45
    agentClimb: 0.4
    ledgeDropHeight: 0
    maxJumpAcrossDistance: 0
    minRegionArea: 2
    manualCellSize: 0
    cellSize: 0.16666667
    manualTileSize: 0
    tileSize: 256
    accuratePlacement: 0
    maxJobWorkers: 0
    preserveTilesOutsideBounds: 0
    debug:
      m_Flags: 0
  m_NavMeshData: {fileID: 0}
--- !u!1001 &115749074
PrefabInstance:
  m_ObjectHideFlags: 0
  serializedVersion: 2
  m_Modification:
    m_TransformParent: {fileID: 0}
    m_Modifications:
    - target: {fileID: 4850903610918242, guid: fdb3a7ca637e4da45a770b92887e06bf, type: 3}
      propertyPath: m_RootOrder
      value: 11
      objectReference: {fileID: 0}
    - target: {fileID: 4850903610918242, guid: fdb3a7ca637e4da45a770b92887e06bf, type: 3}
      propertyPath: m_LocalPosition.x
      value: 53
      objectReference: {fileID: 0}
    - target: {fileID: 4850903610918242, guid: fdb3a7ca637e4da45a770b92887e06bf, type: 3}
      propertyPath: m_LocalPosition.y
      value: 9
      objectReference: {fileID: 0}
    - target: {fileID: 4850903610918242, guid: fdb3a7ca637e4da45a770b92887e06bf, type: 3}
      propertyPath: m_LocalPosition.z
      value: -1.6
      objectReference: {fileID: 0}
    - target: {fileID: 4850903610918242, guid: fdb3a7ca637e4da45a770b92887e06bf, type: 3}
      propertyPath: m_LocalRotation.w
      value: 1
      objectReference: {fileID: 0}
    - target: {fileID: 4850903610918242, guid: fdb3a7ca637e4da45a770b92887e06bf, type: 3}
      propertyPath: m_LocalRotation.x
      value: 0.0000018099951
      objectReference: {fileID: 0}
    - target: {fileID: 4850903610918242, guid: fdb3a7ca637e4da45a770b92887e06bf, type: 3}
      propertyPath: m_LocalRotation.y
      value: -0
      objectReference: {fileID: 0}
    - target: {fileID: 4850903610918242, guid: fdb3a7ca637e4da45a770b92887e06bf, type: 3}
      propertyPath: m_LocalRotation.z
      value: -0
      objectReference: {fileID: 0}
    m_RemovedComponents: []
  m_SourcePrefab: {fileID: 100100000, guid: fdb3a7ca637e4da45a770b92887e06bf, type: 3}
--- !u!1001 &119057394
PrefabInstance:
  m_ObjectHideFlags: 0
  serializedVersion: 2
  m_Modification:
    m_TransformParent: {fileID: 0}
    m_Modifications:
    - target: {fileID: 1700254492533614, guid: 8379202bce0132b49bdaf0b1f5328989, type: 3}
      propertyPath: m_IsActive
      value: 1
      objectReference: {fileID: 0}
    - target: {fileID: 4620319172097378, guid: 8379202bce0132b49bdaf0b1f5328989, type: 3}
      propertyPath: m_RootOrder
      value: 3
      objectReference: {fileID: 0}
    - target: {fileID: 4620319172097378, guid: 8379202bce0132b49bdaf0b1f5328989, type: 3}
      propertyPath: m_LocalPosition.x
      value: 126.76
      objectReference: {fileID: 0}
    - target: {fileID: 4620319172097378, guid: 8379202bce0132b49bdaf0b1f5328989, type: 3}
      propertyPath: m_LocalPosition.y
      value: 17.52
      objectReference: {fileID: 0}
    - target: {fileID: 4620319172097378, guid: 8379202bce0132b49bdaf0b1f5328989, type: 3}
      propertyPath: m_LocalPosition.z
      value: -36.39
      objectReference: {fileID: 0}
    - target: {fileID: 4620319172097378, guid: 8379202bce0132b49bdaf0b1f5328989, type: 3}
      propertyPath: m_LocalRotation.w
      value: -0.00000035762784
      objectReference: {fileID: 0}
    - target: {fileID: 4620319172097378, guid: 8379202bce0132b49bdaf0b1f5328989, type: 3}
      propertyPath: m_LocalRotation.x
      value: -5.5442814e-13
      objectReference: {fileID: 0}
    - target: {fileID: 4620319172097378, guid: 8379202bce0132b49bdaf0b1f5328989, type: 3}
      propertyPath: m_LocalRotation.y
      value: -1
      objectReference: {fileID: 0}
    - target: {fileID: 4620319172097378, guid: 8379202bce0132b49bdaf0b1f5328989, type: 3}
      propertyPath: m_LocalRotation.z
      value: -0.0000018099951
      objectReference: {fileID: 0}
    m_RemovedComponents: []
  m_SourcePrefab: {fileID: 100100000, guid: 8379202bce0132b49bdaf0b1f5328989, type: 3}
--- !u!1001 &425420505
PrefabInstance:
  m_ObjectHideFlags: 0
  serializedVersion: 2
  m_Modification:
    m_TransformParent: {fileID: 0}
    m_Modifications:
    - target: {fileID: 1837306262471780, guid: 2c1dcbf1d98792940840b7527f381e64, type: 3}
      propertyPath: m_IsActive
      value: 1
      objectReference: {fileID: 0}
    - target: {fileID: 4022867417136518, guid: 2c1dcbf1d98792940840b7527f381e64, type: 3}
      propertyPath: m_RootOrder
      value: 2
      objectReference: {fileID: 0}
    - target: {fileID: 4022867417136518, guid: 2c1dcbf1d98792940840b7527f381e64, type: 3}
      propertyPath: m_LocalPosition.x
      value: 126.4
      objectReference: {fileID: 0}
    - target: {fileID: 4022867417136518, guid: 2c1dcbf1d98792940840b7527f381e64, type: 3}
      propertyPath: m_LocalPosition.y
      value: 15.99
      objectReference: {fileID: 0}
    - target: {fileID: 4022867417136518, guid: 2c1dcbf1d98792940840b7527f381e64, type: 3}
      propertyPath: m_LocalPosition.z
      value: -42.9
      objectReference: {fileID: 0}
    - target: {fileID: 4022867417136518, guid: 2c1dcbf1d98792940840b7527f381e64, type: 3}
      propertyPath: m_LocalRotation.w
      value: 1
      objectReference: {fileID: 0}
    - target: {fileID: 4022867417136518, guid: 2c1dcbf1d98792940840b7527f381e64, type: 3}
      propertyPath: m_LocalRotation.x
      value: 0.0000018099951
      objectReference: {fileID: 0}
    - target: {fileID: 4022867417136518, guid: 2c1dcbf1d98792940840b7527f381e64, type: 3}
      propertyPath: m_LocalRotation.y
      value: 0
      objectReference: {fileID: 0}
    - target: {fileID: 4022867417136518, guid: 2c1dcbf1d98792940840b7527f381e64, type: 3}
      propertyPath: m_LocalRotation.z
      value: -0
      objectReference: {fileID: 0}
    m_RemovedComponents: []
  m_SourcePrefab: {fileID: 100100000, guid: 2c1dcbf1d98792940840b7527f381e64, type: 3}
--- !u!1001 &569280790
PrefabInstance:
  m_ObjectHideFlags: 0
  serializedVersion: 2
  m_Modification:
    m_TransformParent: {fileID: 0}
    m_Modifications:
    - target: {fileID: 4061660776025202, guid: a9c899e0b66039040ab831fddc761839, type: 3}
      propertyPath: m_RootOrder
      value: 8
      objectReference: {fileID: 0}
    - target: {fileID: 4061660776025202, guid: a9c899e0b66039040ab831fddc761839, type: 3}
      propertyPath: m_LocalPosition.x
      value: 35.75
      objectReference: {fileID: 0}
    - target: {fileID: 4061660776025202, guid: a9c899e0b66039040ab831fddc761839, type: 3}
      propertyPath: m_LocalPosition.y
      value: 8.85
      objectReference: {fileID: 0}
    - target: {fileID: 4061660776025202, guid: a9c899e0b66039040ab831fddc761839, type: 3}
      propertyPath: m_LocalPosition.z
      value: 13.06
      objectReference: {fileID: 0}
    - target: {fileID: 4061660776025202, guid: a9c899e0b66039040ab831fddc761839, type: 3}
      propertyPath: m_LocalRotation.w
      value: 1
      objectReference: {fileID: 0}
    - target: {fileID: 4061660776025202, guid: a9c899e0b66039040ab831fddc761839, type: 3}
      propertyPath: m_LocalRotation.x
      value: 0.0000018099951
      objectReference: {fileID: 0}
    - target: {fileID: 4061660776025202, guid: a9c899e0b66039040ab831fddc761839, type: 3}
      propertyPath: m_LocalRotation.y
      value: 0
      objectReference: {fileID: 0}
    - target: {fileID: 4061660776025202, guid: a9c899e0b66039040ab831fddc761839, type: 3}
      propertyPath: m_LocalRotation.z
      value: -0
      objectReference: {fileID: 0}
    m_RemovedComponents: []
  m_SourcePrefab: {fileID: 100100000, guid: a9c899e0b66039040ab831fddc761839, type: 3}
--- !u!1 &1125090613
GameObject:
  m_ObjectHideFlags: 0
  m_CorrespondingSourceObject: {fileID: 0}
  m_PrefabInstance: {fileID: 0}
  m_PrefabAsset: {fileID: 0}
  serializedVersion: 6
  m_Component:
  - component: {fileID: 1125090615}
  - component: {fileID: 1125090614}
  m_Layer: 0
  m_Name: Directional Light
  m_TagString: Untagged
  m_Icon: {fileID: 0}
  m_NavMeshLayer: 0
  m_StaticEditorFlags: 0
  m_IsActive: 1
--- !u!108 &1125090614
Light:
  m_ObjectHideFlags: 0
  m_CorrespondingSourceObject: {fileID: 0}
  m_PrefabInstance: {fileID: 0}
  m_PrefabAsset: {fileID: 0}
  m_GameObject: {fileID: 1125090613}
  m_Enabled: 1
  serializedVersion: 10
  m_Type: 1
  m_Shape: 0
  m_Color: {r: 1, g: 0.95686275, b: 0.8392157, a: 1}
  m_Intensity: 1
  m_Range: 10
  m_SpotAngle: 30
  m_InnerSpotAngle: 21.80208
  m_CookieSize: 10
  m_Shadows:
    m_Type: 2
    m_Resolution: -1
    m_CustomResolution: -1
    m_Strength: 1
    m_Bias: 0.05
    m_NormalBias: 0.4
    m_NearPlane: 0.2
    m_CullingMatrixOverride:
      e00: 1
      e01: 0
      e02: 0
      e03: 0
      e10: 0
      e11: 1
      e12: 0
      e13: 0
      e20: 0
      e21: 0
      e22: 1
      e23: 0
      e30: 0
      e31: 0
      e32: 0
      e33: 1
    m_UseCullingMatrixOverride: 0
  m_Cookie: {fileID: 0}
  m_DrawHalo: 0
  m_Flare: {fileID: 0}
  m_RenderMode: 0
  m_CullingMask:
    serializedVersion: 2
    m_Bits: 4294967295
  m_RenderingLayerMask: 1
  m_Lightmapping: 4
  m_LightShadowCasterMode: 0
  m_AreaSize: {x: 1, y: 1}
  m_BounceIntensity: 1
  m_ColorTemperature: 6570
  m_UseColorTemperature: 0
  m_BoundingSphereOverride: {x: 0, y: 0, z: 0, w: 0}
  m_UseBoundingSphereOverride: 0
  m_ShadowRadius: 0
  m_ShadowAngle: 0
--- !u!4 &1125090615
Transform:
  m_ObjectHideFlags: 0
  m_CorrespondingSourceObject: {fileID: 0}
  m_PrefabInstance: {fileID: 0}
  m_PrefabAsset: {fileID: 0}
  m_GameObject: {fileID: 1125090613}
  m_LocalRotation: {x: 0.14764297, y: 0.29519346, z: -0.046226054, w: 0.9428285}
  m_LocalPosition: {x: 0, y: 3, z: 0}
  m_LocalScale: {x: 1, y: 1, z: 1}
  m_Children: []
  m_Father: {fileID: 0}
  m_RootOrder: 10
  m_LocalEulerAnglesHint: {x: 17.8, y: 34.77, z: 0}
--- !u!1001 &1495076281
PrefabInstance:
  m_ObjectHideFlags: 0
  serializedVersion: 2
  m_Modification:
    m_TransformParent: {fileID: 0}
    m_Modifications:
    - target: {fileID: 1404018739909958, guid: 28fb2ce0f62a62b419e5bb40b1c91c5e, type: 3}
      propertyPath: m_IsActive
      value: 1
      objectReference: {fileID: 0}
    - target: {fileID: 4045627247932404, guid: 28fb2ce0f62a62b419e5bb40b1c91c5e, type: 3}
      propertyPath: m_RootOrder
      value: 4
      objectReference: {fileID: 0}
    - target: {fileID: 4045627247932404, guid: 28fb2ce0f62a62b419e5bb40b1c91c5e, type: 3}
      propertyPath: m_LocalPosition.x
      value: 146.96
      objectReference: {fileID: 0}
    - target: {fileID: 4045627247932404, guid: 28fb2ce0f62a62b419e5bb40b1c91c5e, type: 3}
      propertyPath: m_LocalPosition.y
      value: 13.87
      objectReference: {fileID: 0}
    - target: {fileID: 4045627247932404, guid: 28fb2ce0f62a62b419e5bb40b1c91c5e, type: 3}
      propertyPath: m_LocalPosition.z
      value: -52.12
      objectReference: {fileID: 0}
    - target: {fileID: 4045627247932404, guid: 28fb2ce0f62a62b419e5bb40b1c91c5e, type: 3}
      propertyPath: m_LocalRotation.w
      value: -0.00000035762784
      objectReference: {fileID: 0}
    - target: {fileID: 4045627247932404, guid: 28fb2ce0f62a62b419e5bb40b1c91c5e, type: 3}
      propertyPath: m_LocalRotation.x
      value: -0
      objectReference: {fileID: 0}
    - target: {fileID: 4045627247932404, guid: 28fb2ce0f62a62b419e5bb40b1c91c5e, type: 3}
      propertyPath: m_LocalRotation.y
      value: -1
      objectReference: {fileID: 0}
    - target: {fileID: 4045627247932404, guid: 28fb2ce0f62a62b419e5bb40b1c91c5e, type: 3}
      propertyPath: m_LocalRotation.z
      value: -0
      objectReference: {fileID: 0}
    - target: {fileID: 4045627247932404, guid: 28fb2ce0f62a62b419e5bb40b1c91c5e, type: 3}
      propertyPath: m_LocalEulerAnglesHint.y
      value: -179.99998
      objectReference: {fileID: 0}
    m_RemovedComponents: []
  m_SourcePrefab: {fileID: 100100000, guid: 28fb2ce0f62a62b419e5bb40b1c91c5e, type: 3}
--- !u!1001 &1569737065
PrefabInstance:
  m_ObjectHideFlags: 0
  serializedVersion: 2
  m_Modification:
    m_TransformParent: {fileID: 0}
    m_Modifications:
    - target: {fileID: 4772662930463826, guid: 4b9a8a1176f91eb47978feb85de2b04f, type: 3}
      propertyPath: m_RootOrder
      value: 12
      objectReference: {fileID: 0}
    - target: {fileID: 4772662930463826, guid: 4b9a8a1176f91eb47978feb85de2b04f, type: 3}
      propertyPath: m_LocalPosition.x
      value: 73.7
      objectReference: {fileID: 0}
    - target: {fileID: 4772662930463826, guid: 4b9a8a1176f91eb47978feb85de2b04f, type: 3}
      propertyPath: m_LocalPosition.y
      value: 18.1
      objectReference: {fileID: 0}
    - target: {fileID: 4772662930463826, guid: 4b9a8a1176f91eb47978feb85de2b04f, type: 3}
      propertyPath: m_LocalPosition.z
      value: 0.9
      objectReference: {fileID: 0}
    - target: {fileID: 4772662930463826, guid: 4b9a8a1176f91eb47978feb85de2b04f, type: 3}
      propertyPath: m_LocalRotation.w
      value: 1
      objectReference: {fileID: 0}
    - target: {fileID: 4772662930463826, guid: 4b9a8a1176f91eb47978feb85de2b04f, type: 3}
      propertyPath: m_LocalRotation.x
      value: 0.0000018099951
      objectReference: {fileID: 0}
    - target: {fileID: 4772662930463826, guid: 4b9a8a1176f91eb47978feb85de2b04f, type: 3}
      propertyPath: m_LocalRotation.y
      value: -0
      objectReference: {fileID: 0}
    - target: {fileID: 4772662930463826, guid: 4b9a8a1176f91eb47978feb85de2b04f, type: 3}
      propertyPath: m_LocalRotation.z
      value: -0
      objectReference: {fileID: 0}
    m_RemovedComponents: []
  m_SourcePrefab: {fileID: 100100000, guid: 4b9a8a1176f91eb47978feb85de2b04f, type: 3}
--- !u!1001 &1573832208
PrefabInstance:
  m_ObjectHideFlags: 0
  serializedVersion: 2
  m_Modification:
    m_TransformParent: {fileID: 0}
    m_Modifications:
    - target: {fileID: 100000, guid: b69ad2a424d56df4a9a1122560c06b7e, type: 3}
      propertyPath: m_IsActive
      value: 1
      objectReference: {fileID: 0}
    - target: {fileID: 400000, guid: b69ad2a424d56df4a9a1122560c06b7e, type: 3}
      propertyPath: m_RootOrder
      value: 1
      objectReference: {fileID: 0}
    - target: {fileID: 400000, guid: b69ad2a424d56df4a9a1122560c06b7e, type: 3}
      propertyPath: m_LocalPosition.x
      value: 142.9
      objectReference: {fileID: 0}
    - target: {fileID: 400000, guid: b69ad2a424d56df4a9a1122560c06b7e, type: 3}
      propertyPath: m_LocalPosition.y
      value: 16.53
      objectReference: {fileID: 0}
    - target: {fileID: 400000, guid: b69ad2a424d56df4a9a1122560c06b7e, type: 3}
      propertyPath: m_LocalPosition.z
      value: -44.21
      objectReference: {fileID: 0}
    - target: {fileID: 400000, guid: b69ad2a424d56df4a9a1122560c06b7e, type: 3}
      propertyPath: m_LocalRotation.w
      value: 1
      objectReference: {fileID: 0}
    - target: {fileID: 400000, guid: b69ad2a424d56df4a9a1122560c06b7e, type: 3}
      propertyPath: m_LocalRotation.x
      value: 0.0000018099951
      objectReference: {fileID: 0}
    - target: {fileID: 400000, guid: b69ad2a424d56df4a9a1122560c06b7e, type: 3}
      propertyPath: m_LocalRotation.y
      value: 0
      objectReference: {fileID: 0}
    - target: {fileID: 400000, guid: b69ad2a424d56df4a9a1122560c06b7e, type: 3}
      propertyPath: m_LocalRotation.z
      value: -0
      objectReference: {fileID: 0}
    - target: {fileID: 2300000, guid: b69ad2a424d56df4a9a1122560c06b7e, type: 3}
      propertyPath: m_Materials.Array.data[0]
      value: 
      objectReference: {fileID: 946434542, guid: aed6cc8362ac1a549b62a9ed75c4fde3, type: 3}
    m_RemovedComponents: []
  m_SourcePrefab: {fileID: 100100000, guid: b69ad2a424d56df4a9a1122560c06b7e, type: 3}
--- !u!1001 &1692356696
PrefabInstance:
  m_ObjectHideFlags: 0
  serializedVersion: 2
  m_Modification:
    m_TransformParent: {fileID: 0}
    m_Modifications:
    - target: {fileID: 1058855001775206, guid: ec0fa329b70f644409534038b3ed39ac, type: 3}
      propertyPath: m_IsActive
      value: 1
      objectReference: {fileID: 0}
    - target: {fileID: 4917701590025840, guid: ec0fa329b70f644409534038b3ed39ac, type: 3}
      propertyPath: m_RootOrder
      value: 6
      objectReference: {fileID: 0}
    - target: {fileID: 4917701590025840, guid: ec0fa329b70f644409534038b3ed39ac, type: 3}
      propertyPath: m_LocalPosition.x
      value: 131.65
      objectReference: {fileID: 0}
    - target: {fileID: 4917701590025840, guid: ec0fa329b70f644409534038b3ed39ac, type: 3}
      propertyPath: m_LocalPosition.y
      value: 18.36
      objectReference: {fileID: 0}
    - target: {fileID: 4917701590025840, guid: ec0fa329b70f644409534038b3ed39ac, type: 3}
      propertyPath: m_LocalPosition.z
      value: -61.06
      objectReference: {fileID: 0}
    - target: {fileID: 4917701590025840, guid: ec0fa329b70f644409534038b3ed39ac, type: 3}
      propertyPath: m_LocalRotation.w
      value: 0.7071069
      objectReference: {fileID: 0}
    - target: {fileID: 4917701590025840, guid: ec0fa329b70f644409534038b3ed39ac, type: 3}
      propertyPath: m_LocalRotation.x
      value: 0.0000012798602
      objectReference: {fileID: 0}
    - target: {fileID: 4917701590025840, guid: ec0fa329b70f644409534038b3ed39ac, type: 3}
      propertyPath: m_LocalRotation.y
      value: -0.70710677
      objectReference: {fileID: 0}
    - target: {fileID: 4917701590025840, guid: ec0fa329b70f644409534038b3ed39ac, type: 3}
      propertyPath: m_LocalRotation.z
      value: -0.0000012798598
      objectReference: {fileID: 0}
    m_RemovedComponents: []
  m_SourcePrefab: {fileID: 100100000, guid: ec0fa329b70f644409534038b3ed39ac, type: 3}
--- !u!1001 &1696379036
PrefabInstance:
  m_ObjectHideFlags: 0
  serializedVersion: 2
  m_Modification:
    m_TransformParent: {fileID: 0}
    m_Modifications:
    - target: {fileID: 4494565155083236, guid: bccc75965126afd41ad0d9c9daa04e39, type: 3}
      propertyPath: m_RootOrder
      value: 7
      objectReference: {fileID: 0}
    - target: {fileID: 4494565155083236, guid: bccc75965126afd41ad0d9c9daa04e39, type: 3}
      propertyPath: m_LocalPosition.x
      value: 36.48
      objectReference: {fileID: 0}
    - target: {fileID: 4494565155083236, guid: bccc75965126afd41ad0d9c9daa04e39, type: 3}
      propertyPath: m_LocalPosition.y
      value: 8.08
      objectReference: {fileID: 0}
    - target: {fileID: 4494565155083236, guid: bccc75965126afd41ad0d9c9daa04e39, type: 3}
      propertyPath: m_LocalPosition.z
      value: -13.69
      objectReference: {fileID: 0}
    - target: {fileID: 4494565155083236, guid: bccc75965126afd41ad0d9c9daa04e39, type: 3}
      propertyPath: m_LocalRotation.w
      value: 1
      objectReference: {fileID: 0}
    - target: {fileID: 4494565155083236, guid: bccc75965126afd41ad0d9c9daa04e39, type: 3}
      propertyPath: m_LocalRotation.x
      value: 0
      objectReference: {fileID: 0}
    - target: {fileID: 4494565155083236, guid: bccc75965126afd41ad0d9c9daa04e39, type: 3}
      propertyPath: m_LocalRotation.y
      value: 0
      objectReference: {fileID: 0}
    - target: {fileID: 4494565155083236, guid: bccc75965126afd41ad0d9c9daa04e39, type: 3}
      propertyPath: m_LocalRotation.z
      value: 0
      objectReference: {fileID: 0}
    m_RemovedComponents: []
  m_SourcePrefab: {fileID: 100100000, guid: bccc75965126afd41ad0d9c9daa04e39, type: 3}
--- !u!1001 &1799746192
PrefabInstance:
  m_ObjectHideFlags: 0
  serializedVersion: 2
  m_Modification:
    m_TransformParent: {fileID: 0}
    m_Modifications:
    - target: {fileID: 1408546792428414, guid: d5e16478c7336bb4bafb16cef6d74a72, type: 3}
      propertyPath: m_IsActive
      value: 1
      objectReference: {fileID: 0}
    - target: {fileID: 4633048975378242, guid: d5e16478c7336bb4bafb16cef6d74a72, type: 3}
      propertyPath: m_RootOrder
      value: 5
      objectReference: {fileID: 0}
    - target: {fileID: 4633048975378242, guid: d5e16478c7336bb4bafb16cef6d74a72, type: 3}
      propertyPath: m_LocalPosition.x
      value: 126.52
      objectReference: {fileID: 0}
    - target: {fileID: 4633048975378242, guid: d5e16478c7336bb4bafb16cef6d74a72, type: 3}
      propertyPath: m_LocalPosition.y
      value: 13.17
      objectReference: {fileID: 0}
    - target: {fileID: 4633048975378242, guid: d5e16478c7336bb4bafb16cef6d74a72, type: 3}
      propertyPath: m_LocalPosition.z
      value: -51.68
      objectReference: {fileID: 0}
    - target: {fileID: 4633048975378242, guid: d5e16478c7336bb4bafb16cef6d74a72, type: 3}
      propertyPath: m_LocalRotation.w
      value: 1
      objectReference: {fileID: 0}
    - target: {fileID: 4633048975378242, guid: d5e16478c7336bb4bafb16cef6d74a72, type: 3}
      propertyPath: m_LocalRotation.x
      value: 0
      objectReference: {fileID: 0}
    - target: {fileID: 4633048975378242, guid: d5e16478c7336bb4bafb16cef6d74a72, type: 3}
      propertyPath: m_LocalRotation.y
      value: 0
      objectReference: {fileID: 0}
    - target: {fileID: 4633048975378242, guid: d5e16478c7336bb4bafb16cef6d74a72, type: 3}
      propertyPath: m_LocalRotation.z
      value: 0
      objectReference: {fileID: 0}
    m_RemovedComponents: []
  m_SourcePrefab: {fileID: 100100000, guid: d5e16478c7336bb4bafb16cef6d74a72, type: 3}
--- !u!1 &1839129417
GameObject:
  m_ObjectHideFlags: 0
  m_CorrespondingSourceObject: {fileID: 0}
  m_PrefabInstance: {fileID: 0}
  m_PrefabAsset: {fileID: 0}
  serializedVersion: 6
  m_Component:
  - component: {fileID: 1839129422}
  - component: {fileID: 1839129421}
  - component: {fileID: 1839129419}
  - component: {fileID: 1839129418}
  m_Layer: 0
  m_Name: Main Camera
  m_TagString: MainCamera
  m_Icon: {fileID: 0}
  m_NavMeshLayer: 0
  m_StaticEditorFlags: 0
  m_IsActive: 1
--- !u!81 &1839129418
AudioListener:
  m_ObjectHideFlags: 0
  m_CorrespondingSourceObject: {fileID: 0}
  m_PrefabInstance: {fileID: 0}
  m_PrefabAsset: {fileID: 0}
  m_GameObject: {fileID: 1839129417}
  m_Enabled: 1
--- !u!124 &1839129419
Behaviour:
  m_ObjectHideFlags: 0
  m_CorrespondingSourceObject: {fileID: 0}
  m_PrefabInstance: {fileID: 0}
  m_PrefabAsset: {fileID: 0}
  m_GameObject: {fileID: 1839129417}
  m_Enabled: 1
--- !u!20 &1839129421
Camera:
  m_ObjectHideFlags: 0
  m_CorrespondingSourceObject: {fileID: 0}
  m_PrefabInstance: {fileID: 0}
  m_PrefabAsset: {fileID: 0}
  m_GameObject: {fileID: 1839129417}
  m_Enabled: 1
  serializedVersion: 2
  m_ClearFlags: 2
  m_BackGroundColor: {r: 0.16911763, g: 0.16911763, b: 0.16911763, a: 0}
  m_projectionMatrixMode: 1
  m_GateFitMode: 2
  m_FOVAxisMode: 0
  m_SensorSize: {x: 36, y: 24}
  m_LensShift: {x: 0, y: 0}
  m_FocalLength: 50
  m_NormalizedViewPortRect:
    serializedVersion: 2
    x: 0
    y: 0
    width: 1
    height: 1
  near clip plane: 0.3
  far clip plane: 1000
  field of view: 60
  orthographic: 0
  orthographic size: 5
  m_Depth: -1
  m_CullingMask:
    serializedVersion: 2
    m_Bits: 4294967295
  m_RenderingPath: -1
  m_TargetTexture: {fileID: 0}
  m_TargetDisplay: 0
  m_TargetEye: 3
  m_HDR: 0
  m_AllowMSAA: 1
  m_AllowDynamicResolution: 0
  m_ForceIntoRT: 0
  m_OcclusionCulling: 1
  m_StereoConvergence: 10
  m_StereoSeparation: 0.022
--- !u!4 &1839129422
Transform:
  m_ObjectHideFlags: 0
  m_CorrespondingSourceObject: {fileID: 0}
  m_PrefabInstance: {fileID: 0}
  m_PrefabAsset: {fileID: 0}
  m_GameObject: {fileID: 1839129417}
  m_LocalRotation: {x: -0.22222653, y: -0.37521943, z: 0.093149066, w: -0.8950693}
  m_LocalPosition: {x: -5.2135353, y: 39.475166, z: -53.903145}
  m_LocalScale: {x: 1, y: 1, z: 1}
  m_Children: []
  m_Father: {fileID: 0}
  m_RootOrder: 0
  m_LocalEulerAnglesHint: {x: 0, y: 0, z: 0}
--- !u!1001 &2098938003
PrefabInstance:
  m_ObjectHideFlags: 0
  serializedVersion: 2
  m_Modification:
    m_TransformParent: {fileID: 0}
    m_Modifications:
    - target: {fileID: 4949659741232330, guid: 4d94839158ffc7549b6d4c83f6f03cea, type: 3}
      propertyPath: m_RootOrder
      value: 9
      objectReference: {fileID: 0}
    - target: {fileID: 4949659741232330, guid: 4d94839158ffc7549b6d4c83f6f03cea, type: 3}
      propertyPath: m_LocalPosition.x
      value: 18.685059
      objectReference: {fileID: 0}
    - target: {fileID: 4949659741232330, guid: 4d94839158ffc7549b6d4c83f6f03cea, type: 3}
      propertyPath: m_LocalPosition.y
      value: 7.85
      objectReference: {fileID: 0}
    - target: {fileID: 4949659741232330, guid: 4d94839158ffc7549b6d4c83f6f03cea, type: 3}
      propertyPath: m_LocalPosition.z
      value: -7.94
      objectReference: {fileID: 0}
    - target: {fileID: 4949659741232330, guid: 4d94839158ffc7549b6d4c83f6f03cea, type: 3}
      propertyPath: m_LocalRotation.w
      value: 1
      objectReference: {fileID: 0}
    - target: {fileID: 4949659741232330, guid: 4d94839158ffc7549b6d4c83f6f03cea, type: 3}
      propertyPath: m_LocalRotation.x
      value: 0.0000018099951
      objectReference: {fileID: 0}
    - target: {fileID: 4949659741232330, guid: 4d94839158ffc7549b6d4c83f6f03cea, type: 3}
      propertyPath: m_LocalRotation.y
      value: 0
      objectReference: {fileID: 0}
    - target: {fileID: 4949659741232330, guid: 4d94839158ffc7549b6d4c83f6f03cea, type: 3}
      propertyPath: m_LocalRotation.z
      value: -0
      objectReference: {fileID: 0}
    m_RemovedComponents: []
  m_SourcePrefab: {fileID: 100100000, guid: 4d94839158ffc7549b6d4c83f6f03cea, type: 3}
